<?xml version="1.0" encoding="utf-8"?>
<!-- Generator: Adobe Illustrator 24.1.1, SVG Export Plug-In . SVG Version: 6.00 Build 0)  -->
<svg version="1.1" id="Layer_1" xmlns="http://www.w3.org/2000/svg" xmlns:xlink="http://www.w3.org/1999/xlink" x="0px" y="0px"
	 width="125.4px" height="60px" viewBox="0 0 125.4 60" style="enable-background:new 0 0 125.4 60;" xml:space="preserve">
<style type="text/css">
	.st0{fill:#FFFFFF;}
	.st1{fill:#FFFFFF;stroke:#FFFFFF;stroke-width:0.25;stroke-miterlimit:10;}
	.st2{enable-background:new    ;}
</style>
<g id="PSTS-logo-alt" transform="translate(0 0)">
	<path id="Path_51" class="st0" d="M7.6,29.9l0.1,0.2H7.6C7.7,30,7.6,30,7.6,29.9L7.6,29.9z"/>
	<path id="Path_52" class="st1" d="M75.3,30l-0.1-0.1L75,30l0.1,0.1C75.1,30.1,75.2,30,75.3,30z"/>
	<g class="st2">
		<path class="st0" d="M63.8,7.8c0.5,0.5,0.8,1.1,0.8,2s-0.3,1.6-0.8,2.1c-0.5,0.5-1.3,0.7-2.3,0.7H60v2.2h-1.7V7.1h3.3
			C62.5,7.1,63.2,7.4,63.8,7.8z M62.5,10.9c0.3-0.2,0.4-0.6,0.4-1s-0.1-0.7-0.4-1c-0.3-0.2-0.6-0.3-1.1-0.3H60v2.6h1.4
			C61.9,11.2,62.3,11.1,62.5,10.9z"/>
	</g>
	<g class="st2">
		<path class="st1" d="M67.5,9.4c0.4-0.2,0.8-0.3,1.3-0.4v0.7c-0.6,0-1.1,0.2-1.5,0.5s-0.6,0.9-0.6,1.5v3.1H66V9.1h0.7v1.3
			C66.8,10,67.1,9.7,67.5,9.4z"/>
		<path class="st1" d="M73.7,9.4c0.4,0.2,0.8,0.6,1,1s0.4,0.9,0.4,1.5S75,13,74.7,13.4c-0.2,0.4-0.6,0.8-1,1s-0.9,0.4-1.5,0.4
			s-1.1-0.1-1.5-0.4c-0.4-0.2-0.8-0.6-1-1c-0.3-0.4-0.4-0.9-0.4-1.5s0.1-1.1,0.4-1.5c0.2-0.4,0.6-0.8,1-1S71.6,9,72.2,9
			C72.8,9.1,73.3,9.2,73.7,9.4z M71.1,10c-0.3,0.2-0.6,0.5-0.8,0.8S70,11.5,70,12c0,0.4,0.1,0.8,0.3,1.2s0.4,0.6,0.8,0.8
			c0.3,0.2,0.7,0.3,1.1,0.3s0.8-0.1,1.1-0.3c0.3-0.2,0.6-0.5,0.8-0.8s0.3-0.7,0.3-1.2c0-0.4-0.1-0.8-0.3-1.2s-0.4-0.6-0.8-0.8
			c-0.3-0.2-0.7-0.3-1.1-0.3S71.5,9.8,71.1,10z"/>
		<path class="st1" d="M77.9,7.6c-0.2,0.2-0.3,0.5-0.3,0.8v0.8h1.7v0.6h-1.7v5h-0.7v-5h-0.7V9.2h0.7V8.5c0-0.4,0.1-0.7,0.2-1
			c0.2-0.3,0.4-0.5,0.6-0.7s0.6-0.2,0.9-0.2c0.4,0,0.7,0.1,1,0.3l-0.2,0.6c-0.3-0.1-0.5-0.2-0.8-0.2C78.4,7.3,78.1,7.4,77.9,7.6z"/>
		<path class="st1" d="M84.4,9.9c0.5,0.6,0.7,1.3,0.6,2.3h-4.8c0.1,0.6,0.3,1.1,0.7,1.5s0.9,0.6,1.5,0.6c0.4,0,0.7-0.1,1-0.2
			s0.6-0.3,0.8-0.6l0.4,0.4c-0.3,0.3-0.6,0.5-1,0.7s-0.8,0.2-1.3,0.2c-0.6,0-1.1-0.1-1.5-0.4c-0.4-0.2-0.8-0.6-1-1s-0.4-0.9-0.4-1.5
			s0.1-1.1,0.4-1.5c0.2-0.4,0.6-0.8,1-1S81.7,9,82.3,9C83.3,9.1,84,9.3,84.4,9.9z M84.4,11.6c0-0.6-0.2-1.1-0.6-1.4S83,9.7,82.4,9.7
			s-1.1,0.2-1.5,0.5s-0.6,0.8-0.7,1.4C80.2,11.6,84.4,11.6,84.4,11.6z"/>
		<path class="st1" d="M88.9,9.8c-0.3-0.1-0.5-0.1-0.8-0.1c-0.4,0-0.7,0.1-0.9,0.2c-0.2,0.1-0.3,0.4-0.3,0.6c0,0.2,0.1,0.4,0.2,0.5
			s0.3,0.2,0.5,0.3s0.4,0.2,0.8,0.3s0.7,0.2,1,0.3s0.5,0.3,0.6,0.5c0.2,0.2,0.3,0.5,0.3,0.9c0,0.5-0.2,0.9-0.6,1.2s-0.9,0.4-1.5,0.4
			c-0.4,0-0.8-0.1-1.2-0.2c-0.4-0.1-0.7-0.3-1-0.6l0.3-0.5c0.2,0.2,0.5,0.4,0.9,0.5c0.3,0.1,0.7,0.2,1,0.2c0.4,0,0.7-0.1,1-0.2
			c0.2-0.2,0.4-0.4,0.4-0.7c0-0.2-0.1-0.4-0.2-0.5s-0.3-0.2-0.5-0.3s-0.4-0.2-0.8-0.3s-0.7-0.2-0.9-0.3c-0.2-0.1-0.4-0.3-0.6-0.5
			s-0.3-0.5-0.3-0.8c0-0.5,0.2-0.9,0.6-1.1s0.8-0.4,1.4-0.4c0.3,0,0.6,0,1,0.1c0.3,0.1,0.6,0.2,0.8,0.4l-0.3,0.6
			C89.4,10,89.1,9.9,88.9,9.8z"/>
		<path class="st1" d="M93.8,9.8c-0.3-0.1-0.5-0.1-0.8-0.1c-0.4,0-0.7,0.1-0.9,0.2c-0.2,0.1-0.3,0.4-0.3,0.6c0,0.2,0.1,0.4,0.2,0.5
			s0.3,0.2,0.5,0.3s0.4,0.2,0.8,0.3s0.7,0.2,1,0.3c0.2,0.1,0.5,0.3,0.6,0.5c0.2,0.2,0.3,0.5,0.3,0.9c0,0.5-0.2,0.9-0.6,1.2
			s-0.9,0.4-1.5,0.4c-0.4,0-0.8-0.1-1.2-0.2c-0.4-0.1-0.7-0.3-1-0.6l0.3-0.5c0.2,0.2,0.5,0.4,0.9,0.5c0.3,0.1,0.7,0.2,1,0.2
			c0.4,0,0.7-0.1,1-0.2c0.2-0.2,0.4-0.4,0.4-0.7c0-0.2-0.1-0.4-0.2-0.5s-0.3-0.2-0.5-0.3s-0.4-0.2-0.8-0.3s-0.7-0.2-0.9-0.3
			c-0.2-0.1-0.4-0.3-0.6-0.5s-0.3-0.5-0.3-0.8c0-0.5,0.2-0.9,0.6-1.1s0.8-0.4,1.4-0.4c0.3,0,0.6,0,1,0.1c0.3,0.1,0.6,0.2,0.8,0.4
			l-0.3,0.6C94.3,10,94.1,9.9,93.8,9.8z"/>
		<path class="st1" d="M97.2,7.1c0.1,0.1,0.1,0.2,0.1,0.4s0,0.3-0.1,0.4C97.1,7.9,97,8,96.9,8s-0.3-0.1-0.4-0.2s-0.1-0.2-0.1-0.4
			s0-0.3,0.1-0.4s0.2-0.1,0.4-0.1C97,6.9,97.1,7,97.2,7.1z M96.5,9.1h0.7v5.8h-0.7V9.1z"/>
		<path class="st1" d="M103.2,9.4c0.4,0.2,0.8,0.6,1,1s0.4,0.9,0.4,1.5s-0.1,1.1-0.4,1.5s-0.6,0.8-1,1s-0.9,0.4-1.5,0.4
			s-1.1-0.1-1.5-0.4c-0.4-0.2-0.8-0.6-1-1s-0.4-0.9-0.4-1.5s0.1-1.1,0.4-1.5s0.6-0.8,1-1s0.9-0.4,1.5-0.4S102.7,9.2,103.2,9.4z
			 M100.6,10c-0.3,0.2-0.6,0.5-0.8,0.8c-0.2,0.3-0.3,0.7-0.3,1.2c0,0.4,0.1,0.8,0.3,1.2c0.2,0.3,0.4,0.6,0.8,0.8
			c0.3,0.2,0.7,0.3,1.1,0.3s0.8-0.1,1.1-0.3c0.3-0.2,0.6-0.5,0.8-0.8c0.2-0.3,0.3-0.7,0.3-1.2c0-0.4-0.1-0.8-0.3-1.2
			c-0.2-0.3-0.4-0.6-0.8-0.8c-0.3-0.2-0.7-0.3-1.1-0.3S100.9,9.8,100.6,10z"/>
		<path class="st1" d="M110.8,9.7c0.4,0.4,0.6,0.9,0.6,1.6v3.5h-0.7v-3.4c0-0.5-0.2-1-0.5-1.3s-0.7-0.5-1.3-0.5
			c-0.6,0-1.1,0.2-1.4,0.5s-0.6,0.8-0.6,1.5v3.1h-0.7V9.1h0.7v1.3c0.2-0.4,0.5-0.8,0.9-1s0.9-0.3,1.4-0.4
			C109.9,9.1,110.4,9.3,110.8,9.7z"/>
		<path class="st1" d="M117,14.8v-1c-0.2,0.3-0.5,0.6-0.9,0.8s-0.8,0.2-1.3,0.2c-0.4,0-0.7-0.1-1-0.2s-0.5-0.4-0.7-0.6
			c-0.2-0.3-0.2-0.6-0.2-0.9c0-0.5,0.2-0.9,0.6-1.2s0.9-0.4,1.6-0.4h1.9v-0.4c0-0.5-0.1-0.8-0.4-1.1s-0.7-0.4-1.2-0.4
			c-0.6,0-1.2,0.2-1.9,0.7l-0.3-0.5c0.4-0.3,0.8-0.5,1.1-0.6c0.4-0.1,0.8-0.2,1.2-0.2c0.7,0,1.2,0.2,1.6,0.5s0.6,0.8,0.6,1.4v3.8
			L117,14.8L117,14.8z M116.2,13.9c0.4-0.2,0.6-0.6,0.7-1v-0.8H115c-0.5,0-0.9,0.1-1.2,0.3c-0.3,0.2-0.4,0.4-0.4,0.8
			c0,0.3,0.1,0.6,0.4,0.8s0.6,0.3,1,0.3C115.4,14.3,115.9,14.1,116.2,13.9z"/>
		<path class="st1" d="M119.7,6.7h0.7v8.2h-0.7V6.7z"/>
	</g>
	<g class="st2">
		<path class="st0" d="M62,21.7c-0.4-0.1-0.8-0.2-1.1-0.2s-0.5,0.1-0.7,0.2s-0.3,0.3-0.3,0.5c0,0.3,0.1,0.5,0.4,0.6
			c0.3,0.1,0.6,0.3,1.2,0.4c0.5,0.2,1,0.3,1.3,0.5s0.6,0.4,0.9,0.7c0.2,0.3,0.4,0.7,0.4,1.2s-0.1,0.9-0.4,1.3
			c-0.3,0.4-0.6,0.6-1.1,0.8c-0.5,0.2-1,0.3-1.6,0.3s-1.2-0.1-1.8-0.3c-0.6-0.2-1.1-0.5-1.6-0.9l0.7-1.4c0.4,0.4,0.8,0.6,1.3,0.8
			c0.5,0.2,1,0.3,1.4,0.3s0.6-0.1,0.8-0.2s0.3-0.3,0.3-0.6c0-0.2-0.1-0.4-0.2-0.5s-0.3-0.2-0.5-0.3s-0.5-0.2-0.9-0.3
			c-0.5-0.1-1-0.3-1.3-0.4s-0.6-0.4-0.9-0.7c-0.2-0.3-0.4-0.7-0.4-1.2s0.1-0.9,0.4-1.2c0.2-0.3,0.6-0.6,1-0.8s1-0.3,1.6-0.3
			c0.5,0,1,0.1,1.6,0.2c0.5,0.2,1,0.4,1.4,0.6l-0.7,1.4C62.9,22.1,62.5,21.9,62,21.7z"/>
	</g>
	<g class="st2">
		<path class="st1" d="M69.1,27.8v-1c-0.2,0.3-0.5,0.6-0.9,0.8c-0.4,0.2-0.8,0.2-1.3,0.2c-0.4,0-0.7-0.1-1-0.2s-0.5-0.4-0.7-0.6
			C65,26.8,65,26.5,65,26.1c0-0.5,0.2-0.9,0.6-1.2c0.4-0.3,0.9-0.4,1.6-0.4h1.9v-0.4c0-0.5-0.1-0.8-0.4-1.1
			c-0.3-0.3-0.7-0.4-1.2-0.4c-0.6,0-1.2,0.2-1.9,0.7l-0.3-0.5c0.4-0.3,0.8-0.5,1.1-0.6c0.4-0.1,0.8-0.2,1.2-0.2
			c0.7,0,1.2,0.2,1.6,0.5s0.6,0.8,0.6,1.4v3.8h-0.7V27.8z M68.3,26.9c0.4-0.2,0.6-0.6,0.7-1v-0.8h-1.9c-0.5,0-0.9,0.1-1.2,0.3
			c-0.3,0.2-0.4,0.4-0.4,0.8c0,0.3,0.1,0.6,0.4,0.8c0.3,0.2,0.6,0.3,1,0.3C67.6,27.3,68,27.1,68.3,26.9z"/>
		<path class="st1" d="M71.8,19.7h0.7v8.2h-0.7V19.7z"/>
		<path class="st1" d="M79.1,22.9c0.5,0.6,0.7,1.3,0.6,2.3h-4.8c0.1,0.6,0.3,1.1,0.7,1.5s0.9,0.6,1.5,0.6c0.4,0,0.7-0.1,1-0.2
			s0.6-0.3,0.8-0.6l0.4,0.4c-0.3,0.3-0.6,0.5-1,0.7s-0.8,0.2-1.3,0.2c-0.6,0-1.1-0.1-1.5-0.4c-0.4-0.2-0.8-0.6-1-1s-0.4-0.9-0.4-1.5
			s0.1-1.1,0.4-1.5c0.2-0.4,0.6-0.8,1-1S76.4,22,77,22C77.9,22.1,78.6,22.3,79.1,22.9z M79.1,24.6c0-0.6-0.2-1.1-0.6-1.4
			c-0.4-0.4-0.8-0.5-1.4-0.5s-1.1,0.2-1.5,0.5S75,24,74.9,24.6H79.1z"/>
		<path class="st1" d="M83.5,22.8c-0.3-0.1-0.5-0.1-0.8-0.1c-0.4,0-0.7,0.1-0.9,0.2c-0.2,0.1-0.3,0.4-0.3,0.6s0.1,0.4,0.2,0.5
			s0.3,0.2,0.5,0.3c0.2,0.1,0.4,0.2,0.8,0.3c0.4,0.1,0.7,0.2,1,0.3c0.2,0.1,0.5,0.3,0.6,0.5c0.2,0.2,0.3,0.5,0.3,0.9
			c0,0.5-0.2,0.9-0.6,1.2c-0.4,0.3-0.9,0.4-1.5,0.4c-0.4,0-0.8-0.1-1.2-0.2c-0.4-0.1-0.7-0.3-1-0.6l0.3-0.5c0.2,0.2,0.5,0.4,0.9,0.5
			c0.3,0.1,0.7,0.2,1,0.2c0.4,0,0.7-0.1,1-0.2c0.2-0.2,0.4-0.4,0.4-0.7c0-0.2-0.1-0.4-0.2-0.5s-0.3-0.2-0.5-0.3
			c-0.2-0.1-0.4-0.2-0.8-0.3c-0.4-0.1-0.7-0.2-0.9-0.3c-0.2-0.1-0.4-0.3-0.6-0.5s-0.3-0.5-0.3-0.8c0-0.5,0.2-0.9,0.6-1.1
			s0.8-0.4,1.4-0.4c0.3,0,0.6,0,1,0.1c0.3,0.1,0.6,0.2,0.8,0.4l-0.3,0.6C84,23,83.8,22.9,83.5,22.8z"/>
	</g>
	<g class="st2">
		<path class="st0" d="M57.5,33.1h6.4v1.5h-2.4v6.2h-1.7v-6.2h-2.3V33.1z"/>
	</g>
	<g class="st2">
		<path class="st1" d="M66.6,35.4c0.4-0.2,0.8-0.3,1.3-0.4v0.7c-0.6,0-1.1,0.2-1.5,0.5s-0.6,0.9-0.6,1.5v3.1h-0.7V35h0.7v1.3
			C66,36,66.3,35.7,66.6,35.4z"/>
		<path class="st1" d="M72.4,40.8v-1c-0.2,0.3-0.5,0.6-0.9,0.8s-0.8,0.2-1.3,0.2c-0.4,0-0.7-0.1-1-0.2s-0.5-0.4-0.7-0.6
			c-0.2-0.3-0.2-0.6-0.2-0.9c0-0.5,0.2-0.9,0.6-1.2s0.9-0.4,1.6-0.4h1.9v-0.4c0-0.5-0.1-0.8-0.4-1.1s-0.7-0.4-1.2-0.4
			c-0.6,0-1.2,0.2-1.9,0.7l-0.3-0.5c0.4-0.3,0.8-0.5,1.1-0.6c0.4-0.1,0.8-0.2,1.2-0.2c0.7,0,1.2,0.2,1.6,0.5s0.6,0.8,0.6,1.4v3.8
			h-0.7V40.8z M71.7,39.9c0.4-0.2,0.6-0.6,0.7-1v-0.8h-1.9c-0.5,0-0.9,0.1-1.2,0.3c-0.3,0.2-0.4,0.4-0.4,0.8c0,0.3,0.1,0.6,0.4,0.8
			s0.6,0.3,1,0.3C70.9,40.3,71.3,40.1,71.7,39.9z"/>
		<path class="st1" d="M75.9,33.1c0.1,0.1,0.1,0.2,0.1,0.4s0,0.3-0.1,0.4c-0.1,0.1-0.2,0.2-0.4,0.2c-0.1,0-0.3-0.1-0.4-0.2
			C75,33.7,75,33.6,75,33.4s0-0.3,0.1-0.4c0.1-0.1,0.2-0.1,0.4-0.1S75.8,33,75.9,33.1z M75.1,35.1h0.7v5.8h-0.7V35.1z"/>
		<path class="st1" d="M82.6,35.7c0.4,0.4,0.6,0.9,0.6,1.6v3.5h-0.7v-3.4c0-0.5-0.2-1-0.5-1.3s-0.7-0.5-1.3-0.5
			c-0.6,0-1.1,0.2-1.4,0.5s-0.6,0.8-0.6,1.5v3.1H78v-5.8h0.7v1.3c0.2-0.4,0.5-0.8,0.9-1s0.9-0.3,1.4-0.4
			C81.7,35.1,82.2,35.3,82.6,35.7z"/>
		<path class="st1" d="M85.9,33.1c0.1,0.1,0.1,0.2,0.1,0.4s0,0.3-0.1,0.4c-0.1,0.1-0.2,0.2-0.4,0.2c-0.1,0-0.3-0.1-0.4-0.2
			C85,33.8,85,33.7,85,33.5s0-0.3,0.1-0.4c0.1-0.1,0.2-0.1,0.4-0.1C85.7,32.9,85.8,33,85.9,33.1z M85.2,35.1h0.7v5.8h-0.7V35.1z"/>
		<path class="st1" d="M92.7,35.7c0.4,0.4,0.6,0.9,0.6,1.6v3.5h-0.7v-3.4c0-0.5-0.2-1-0.5-1.3s-0.7-0.5-1.3-0.5
			c-0.6,0-1.1,0.2-1.4,0.5c-0.4,0.4-0.6,0.8-0.6,1.5v3.1h-0.7v-5.8h0.7v1.3c0.2-0.4,0.5-0.8,0.9-1s0.9-0.3,1.4-0.4
			C91.8,35.1,92.3,35.3,92.7,35.7z"/>
		<path class="st1" d="M100.3,35.1v5.2c0,0.6-0.1,1-0.4,1.5c-0.2,0.4-0.6,0.7-1,1C98.5,42.9,98,43,97.4,43c-0.9,0-1.6-0.3-2.4-0.9
			l0.4-0.5c0.3,0.3,0.6,0.5,0.9,0.6s0.7,0.2,1.1,0.2c0.7,0,1.2-0.2,1.6-0.6c0.4-0.4,0.6-0.9,0.6-1.5v-0.9c-0.2,0.4-0.5,0.7-0.9,0.9
			s-0.8,0.3-1.3,0.3s-1-0.1-1.4-0.4c-0.4-0.2-0.7-0.6-0.9-1c-0.2-0.4-0.3-0.9-0.3-1.4s0.1-1,0.3-1.4s0.5-0.7,0.9-1
			c0.4-0.2,0.9-0.4,1.4-0.4s0.9,0.1,1.3,0.3s0.7,0.5,0.9,1V35h0.7V35.1z M98.5,39.7c0.3-0.2,0.6-0.4,0.7-0.8
			c0.2-0.3,0.3-0.7,0.3-1.1c0-0.4-0.1-0.8-0.3-1.1c-0.2-0.3-0.4-0.6-0.7-0.8c-0.3-0.2-0.7-0.3-1.1-0.3s-0.8,0.1-1.1,0.3
			c-0.3,0.2-0.6,0.4-0.7,0.8s-0.3,0.7-0.3,1.1s0.1,0.8,0.3,1.1s0.4,0.6,0.7,0.8c0.3,0.2,0.7,0.3,1.1,0.3S98.2,39.9,98.5,39.7z"/>
	</g>
	<g class="st2">
		<path class="st0" d="M62.1,47.9c-0.5-0.2-0.9-0.2-1.2-0.2c-0.2,0-0.4,0-0.6,0.1s-0.2,0.2-0.2,0.4s0.1,0.3,0.2,0.4
			c0.1,0.1,0.3,0.2,0.5,0.3s0.5,0.2,0.8,0.3c0.5,0.2,1,0.3,1.3,0.5s0.6,0.4,0.9,0.7c0.2,0.3,0.4,0.7,0.4,1.2s-0.1,1-0.4,1.3
			c-0.3,0.4-0.6,0.6-1.1,0.8s-1,0.3-1.6,0.3s-1.3-0.1-1.9-0.3s-1.2-0.5-1.6-0.9l0.8-1.6c0.4,0.3,0.8,0.6,1.4,0.8
			c0.5,0.2,1,0.3,1.4,0.3c0.3,0,0.5-0.1,0.7-0.2c0.2-0.1,0.3-0.3,0.3-0.5s-0.1-0.3-0.2-0.4s-0.3-0.2-0.5-0.3s-0.5-0.2-0.8-0.2
			c-0.5-0.1-1-0.3-1.3-0.4s-0.6-0.4-0.9-0.7S58,48.9,58,48.4s0.1-0.9,0.4-1.3s0.6-0.6,1.1-0.8s1-0.3,1.6-0.3s1.1,0.1,1.6,0.2
			c0.5,0.2,1,0.4,1.4,0.6l-0.8,1.6C63,48.2,62.6,48,62.1,47.9z"/>
	</g>
	<g class="st2">
		<path class="st1" d="M69.3,48.4c0.4,0.2,0.8,0.6,1,1s0.4,0.9,0.4,1.5s-0.1,1.1-0.4,1.5c-0.2,0.4-0.6,0.8-1,1s-0.9,0.4-1.5,0.4
			s-1.1-0.1-1.5-0.4c-0.4-0.2-0.8-0.6-1-1C65,52,64.9,51.5,64.9,51c0-0.6,0.1-1.1,0.4-1.5c0.2-0.4,0.6-0.8,1-1s0.9-0.4,1.5-0.4
			C68.3,48.1,68.8,48.2,69.3,48.4z M66.7,49c-0.3,0.2-0.6,0.5-0.8,0.8s-0.3,0.7-0.3,1.2c0,0.4,0.1,0.8,0.3,1.2s0.4,0.6,0.8,0.8
			c0.3,0.2,0.7,0.3,1.1,0.3s0.8-0.1,1.1-0.3c0.3-0.2,0.6-0.5,0.8-0.8S70,51.5,70,51c0-0.4-0.1-0.8-0.3-1.2s-0.4-0.6-0.8-0.8
			c-0.3-0.2-0.7-0.3-1.1-0.3S67,48.8,66.7,49z"/>
		<path class="st1" d="M72.3,45.7H73v8.2h-0.7V45.7z"/>
		<path class="st1" d="M80.2,48.1v5.8h-0.7v-1.4c-0.2,0.5-0.5,0.8-0.9,1s-0.8,0.4-1.4,0.4c-0.7,0-1.2-0.2-1.6-0.6
			c-0.4-0.4-0.6-0.9-0.6-1.6v-3.5h0.7v3.4c0,0.5,0.1,1,0.4,1.3s0.7,0.5,1.2,0.5c0.6,0,1.1-0.2,1.5-0.6c0.4-0.4,0.5-1,0.5-1.6v-2.8
			h0.9V48.1z"/>
		<path class="st1" d="M85.2,53.5c-0.4,0.3-0.8,0.4-1.3,0.4c-0.4,0-0.8-0.1-1-0.4s-0.4-0.7-0.4-1.2v-3.4h-0.8v-0.6h0.8v-1.5h0.7v1.5
			h1.9v0.6h-1.9v3.3c0,0.7,0.3,1.1,0.8,1.1c0.3,0,0.6-0.1,1-0.3L85.2,53.5z"/>
		<path class="st1" d="M87.3,46.1c0.1,0.1,0.1,0.2,0.1,0.4s0,0.3-0.1,0.4c-0.1,0-0.2,0.1-0.3,0.1s-0.3-0.1-0.4-0.2
			c-0.1-0.1-0.1-0.2-0.1-0.4s0-0.3,0.1-0.4c0.1-0.1,0.2-0.1,0.4-0.1C87.1,45.9,87.2,46,87.3,46.1z M86.6,48.1h0.7v5.8h-0.7V48.1z"/>
		<path class="st1" d="M93.3,48.4c0.4,0.2,0.8,0.6,1,1s0.4,0.9,0.4,1.5s-0.1,1.1-0.4,1.5s-0.6,0.8-1,1s-0.9,0.4-1.5,0.4
			s-1.1-0.1-1.5-0.4c-0.4-0.2-0.8-0.6-1-1C89,52,88.9,51.5,88.9,51c0-0.6,0.1-1.1,0.4-1.5s0.6-0.8,1-1s0.9-0.4,1.5-0.4
			S92.8,48.2,93.3,48.4z M90.6,49c-0.3,0.2-0.6,0.5-0.8,0.8c-0.2,0.3-0.3,0.7-0.3,1.2c0,0.4,0.1,0.8,0.3,1.2
			c0.2,0.3,0.4,0.6,0.8,0.8c0.3,0.2,0.7,0.3,1.1,0.3s0.8-0.1,1.1-0.3c0.3-0.2,0.6-0.5,0.8-0.8c0.2-0.3,0.3-0.7,0.3-1.2
			c0-0.4-0.1-0.8-0.3-1.2c-0.2-0.3-0.4-0.6-0.8-0.8c-0.3-0.2-0.7-0.3-1.1-0.3S91,48.8,90.6,49z"/>
		<path class="st1" d="M100.9,48.7c0.4,0.4,0.6,0.9,0.6,1.6v3.5h-0.7v-3.4c0-0.5-0.2-1-0.5-1.3s-0.7-0.5-1.3-0.5
			c-0.6,0-1.1,0.2-1.4,0.5s-0.6,1-0.6,1.6v3.1h-0.7V48H97v1.3c0.2-0.4,0.5-0.8,0.9-1s0.9-0.3,1.4-0.4
			C99.9,48.1,100.5,48.3,100.9,48.7z"/>
		<path class="st1" d="M105.7,48.8c-0.3-0.1-0.5-0.1-0.8-0.1c-0.4,0-0.7,0.1-0.9,0.2c-0.2,0.1-0.3,0.4-0.3,0.6
			c0,0.2,0.1,0.4,0.2,0.5s0.3,0.2,0.5,0.3s0.4,0.2,0.8,0.3s0.7,0.2,1,0.3s0.5,0.3,0.6,0.5c0.2,0.2,0.3,0.5,0.3,0.9
			c0,0.5-0.2,0.9-0.6,1.2s-0.9,0.4-1.5,0.4c-0.4,0-0.8-0.1-1.2-0.2c-0.4-0.1-0.7-0.3-1-0.6l0.3-0.5c0.2,0.2,0.5,0.4,0.9,0.5
			c0.3,0.1,0.7,0.2,1,0.2c0.4,0,0.7-0.1,1-0.2c0.2-0.2,0.4-0.4,0.4-0.7c0-0.2-0.1-0.4-0.2-0.5s-0.3-0.2-0.5-0.3s-0.4-0.2-0.8-0.3
			s-0.7-0.2-0.9-0.3c-0.2-0.1-0.4-0.3-0.6-0.5s-0.3-0.5-0.3-0.8c0-0.5,0.2-0.9,0.6-1.1s0.8-0.4,1.4-0.4c0.3,0,0.6,0,1,0.1
			c0.3,0.1,0.6,0.2,0.8,0.4l-0.3,0.6C106.2,49,105.9,48.9,105.7,48.8z"/>
	</g>
	<g id="Group_11">
		<path id="Path_53" class="st0" d="M17,42.8c0.9,0,1.7,0,2.6,0c0.5,0.1,0.6-0.4,0.2-0.6c-0.8-0.8-3.2-0.7-3.6,0.4
			C16.4,42.9,16.8,42.8,17,42.8z"/>
		<path id="Path_54" class="st0" d="M30,13c4.4-0.2,11.2-0.7,15.6-0.1v-1.7c0-2.3-0.5-3.1-2.1-3.8C38.4,5,33,2.6,27.9,0.2
			C27.3,0,26.8-0.1,26.2,0C17.4,1.9,8.9,4.8,0.8,8.6C0.1,8.9,0,14,0.2,19c3.3,16.1,34.1,23.3,28,11.7c0.1,0,0.1,0,0.1,0.1
			c3.8,0.3,6.1,3.7,5.3,6.6c-0.8,3.1-3.8,4.6-7,4.5c-0.5,0-0.7,0.1-1,0.5c-1.8,3.4-6.1,4.9-10.3,4.8c-4.3,0-10.9,1-15.3,0.3v1.4
			c-0.1,1.6,0.7,3.1,2.1,3.9c5.2,2.3,10.3,4.6,15.5,7c0.5,0.2,1.1,0.3,1.6,0.2c8.8-1.7,17.4-4.6,25.4-8.6c1.6-0.8,0.9-8.2,0.8-10.4
			C42.1,24.9,11,17.7,17.1,29.3c-0.1,0-0.1,0-0.1-0.1c-3.8-0.3-6.1-3.7-5.3-6.6c0.8-3.1,3.8-4.6,7-4.5c0.5,0,0.7-0.1,1-0.5
			C21.5,14.4,25.9,12.8,30,13z"/>
		<path id="Path_55" class="st0" d="M28.4,17.2c-0.4,0-0.7,0-1.1,0c-0.5,0-1,0-1.5,0c-0.2,0-0.4,0-0.5,0.2s0.1,0.3,0.2,0.4
			c0.9,0.6,2.2,0.7,3.2,0.1c0.2-0.1,0.5-0.3,0.4-0.5C29,17.1,28.6,17.2,28.4,17.2z"/>
	</g>
</g>
</svg>
