<svg width="210" height="210" viewBox="0 0 210 210" fill="none" xmlns="http://www.w3.org/2000/svg">
<rect width="210" height="210" fill="#D9D7E5"/>
<path d="M102.002 56H65V156H102.002C133.516 156 153.776 135.63 153.776 106C153.776 76.2279 133.516 56 102.002 56ZM89.058 134.917V76.7977H100.454C118.603 76.7977 129.295 87.6239 129.295 106C129.295 124.376 118.603 134.917 100.454 134.917H89.058Z" fill="#10214C"/>
</svg>
