<svg width="210" height="210" viewBox="0 0 210 210" fill="none" xmlns="http://www.w3.org/2000/svg">
<path d="M210 0H0V210H210V0Z" fill="white"/>
<path d="M186.449 43.4441L178.809 58.3127L193 66.9196L176.77 70.1341L178.981 86.7488L166.383 75.8887L154.949 88L155.469 71.2431L139 69.731L152.247 59.6957L143.144 45.6988L159.143 49.9417L164.261 34L170.964 49.3263L186.449 43.4441Z" fill="#010101"/>
<path d="M130.628 101.555C126.589 105.756 125.092 110.584 126.989 116.128C128.944 121.842 133.484 124.75 139.046 126.263C140.967 126.785 143.13 126.739 144.851 127.611C148.801 129.612 150.182 135.308 147.94 139.064C145.521 143.119 140.068 144.309 136.007 141.151C133.301 139.047 130.533 137.669 127.199 137.141C120.631 136.102 113.589 138.547 111.051 142.868C107.46 148.983 108.086 157.429 112.785 162.804C115.528 165.941 116.295 169.174 114.211 172.835C112.257 176.267 108.988 177.456 105.354 176.848C101.305 176.17 98.9628 173.439 98.6804 169.252C98.5157 166.81 97.8216 164.588 96.577 162.519C92.5066 155.752 85.677 151.945 79.9282 153.22C73.5215 154.642 68.1661 161.019 67.1251 168.71C66.4572 173.643 63.8356 176.366 58.8402 176.406C54.2317 176.443 51.9262 173.59 51.0083 169.41C50.4535 166.884 51.4852 164.792 53.0911 162.867C57.7087 157.332 57.5523 150.879 55.5854 144.634C52.7616 135.668 38.6908 133.12 31.156 139.887C27.0806 143.547 22.1082 143.615 19.0443 140.052C16.1073 136.637 16.3973 131.829 19.6072 128.652C21.0156 127.258 22.7178 126.656 24.5451 126.573C29.0708 126.365 32.5055 124.054 35.5293 121.019C39.6222 116.912 42.5638 112.04 39.917 106.251C37.137 100.169 33.2354 94.7919 25.3653 94.8436C21.1657 94.8712 18.4218 92.7131 17.3151 88.7383C16.3158 85.1491 17.7643 82.1064 20.6542 80.1257C23.6121 78.0985 26.8311 78.2679 29.8224 80.5349C37.3782 86.2611 47.5255 86.463 52.7168 81.0326C57.6967 75.8232 57.3324 65.138 51.9205 57.6763C49.2245 53.9593 49.5478 49.1713 52.8216 46.2625C56.2361 43.2288 59.8804 43.6832 63.3875 46.0485C65.5091 47.4793 66.2165 49.8067 66.3772 52.272C66.6145 55.9112 68.107 59.0248 70.5395 61.6189C74.6659 66.0194 79.2383 69.7532 85.8534 67.7819C92.4908 65.804 97.3755 59.4556 97.9404 52.5655C98.3315 47.7953 101.687 44.4077 106.014 44.4157C110.085 44.4233 114.082 48.6088 113.959 52.7366C113.831 57.0572 110.304 60.3291 105.591 60.4989C97.8237 60.7786 91.2314 66.6021 90.1479 74.6942C89.5082 79.4724 87.7019 83.1054 82.5849 83.0581C77.5986 83.012 75.4438 79.5926 74.9165 74.7259C74.2484 68.5583 70.2774 64.5756 65.1637 61.6161C62.3862 60.0087 60.3129 60.3333 59.66 63.9582C58.5833 69.937 58.7796 75.7498 62.8172 80.6547C65.8749 84.369 66.2465 88.0348 62.9136 91.4128C59.4635 94.9096 55.8098 94.0116 52.1787 91.09C47.1318 87.0293 41.2135 87.6386 35.3905 88.7174C33.2389 89.116 32.3044 90.525 33.7978 92.711C37.1901 97.6767 41.1213 102.077 47.5227 102.591C52.357 102.979 55.3459 105.414 55.5543 109.937C55.7713 114.646 52.5236 117.166 47.9229 117.656C41.2562 118.366 37.1687 122.571 33.865 127.879C32.1884 130.572 32.7015 132.109 36.0506 132.808C41.8971 134.027 47.3772 133.58 52.136 129.745C55.7531 126.829 59.4184 126.011 62.9525 129.338C66.5388 132.713 65.8074 136.386 63.0009 140.12C59.2169 145.154 58.8384 150.814 60.2841 156.847C61.1715 160.551 63.0518 160.727 65.7944 159.099C70.5792 156.257 73.8989 152.253 74.8429 146.643C75.5944 142.176 76.9401 138.057 82.3074 138.108C87.7161 138.16 89.4556 141.843 90.1044 146.86C90.9176 153.146 95.3172 157.084 100.512 160.23C103.632 162.12 104.605 159.804 105.082 157.704C106.378 152.003 106.306 146.397 102.378 141.516C99.5304 137.978 98.4868 134.09 102.026 130.684C105.604 127.239 109.377 128.019 113.272 131.109C118.276 135.078 124.233 134.583 130.075 133.252C132.95 132.597 133.297 130.869 131.86 128.383C128.865 123.202 124.774 119.449 118.715 118.616C114.367 118.018 111.362 116.205 111.052 111.588C110.762 107.256 113.387 105.027 117.267 103.722C125.969 100.794 131.276 93.4072 137.748 87.603C158.619 68.8847 154.264 74.8952 174.5 55.5C151.829 79.4691 153.494 77.7719 130.628 101.555Z" fill="#EE831B"/>
</svg>
